<?xml version="1.0" encoding="UTF-8" standalone="no"?>
<!DOCTYPE svg PUBLIC "-//W3C//DTD SVG 20010904//EN"
"http://www.w3.org/TR/2001/REC-SVG-20010904/DTD/svg10.dtd"
[
 <!ATTLIST svg
  xmlns:xlink CDATA #FIXED "http://www.w3.org/1999/xlink">
]>
<!-- Created with Sodipodi ("http://www.sodipodi.com/") -->
<svg
   xmlns="http://www.w3.org/2000/svg"
   xmlns:xlink="http://www.w3.org/1999/xlink"
   version="1"
   x="0"
   y="0"
   width="125"
   height="125"
   id="svg101">
  <defs
     id="defs103" />
  <g
     style="font-size:12;"
     id="g223">
    <path
       d="M 6.2796 6.74281 L 6.2796 118.768 L 118.718 118.768 L 118.718 6.74281 L 6.2796 6.74281 z "
       style="fill:#406cff;fill-rule:evenodd;stroke-width:0pt;"
       id="path222" />
    <path
       d="M 36.7926 21.3672 L 36.7926 35.4072 L 40.4326 35.4072 L 40.4326 26.9832 C 40.4326 25.3192 41.6026 24.2272 43.3706 24.2272 C 44.9306 24.2272 45.7106 25.0852 45.7106 26.7492 L 45.7106 35.4072 L 49.3506 35.4072 L 49.3506 25.9952 C 49.3506 22.9012 47.6346 21.1332 44.6446 21.1332 C 42.7466 21.1332 41.4726 21.8352 40.4326 23.3952 L 40.4326 21.3672 L 36.7926 21.3672 z M 33.8286 25.8912 C 33.7766 22.9272 31.4886 21.1332 27.7186 21.1332 C 24.1566 21.1332 21.9466 22.9272 21.9466 25.8132 C 21.9466 26.7492 22.2326 27.5552 22.7266 28.1012 C 23.2206 28.5952 23.6626 28.8292 25.0146 29.2712 L 29.3566 30.6232 C 30.2666 30.9092 30.5786 31.1952 30.5786 31.7672 C 30.5786 32.6252 29.5646 33.1452 27.8746 33.1452 C 26.9386 33.1452 26.1846 32.9632 25.7166 32.6512 C 25.3266 32.3652 25.1706 32.0792 25.0146 31.3252 L 21.4526 31.3252 C 21.5566 34.3932 23.8186 36.0052 28.0826 36.0052 C 30.0326 36.0052 31.5146 35.5892 32.5546 34.7572 C 33.5946 33.9252 34.2186 32.6252 34.2186 31.2472 C 34.2186 29.4272 33.3086 28.2572 31.4626 27.7112 L 26.8606 26.3852 C 25.8466 26.0732 25.5866 25.8652 25.5866 25.2932 C 25.5866 24.5132 26.4186 23.9932 27.6926 23.9932 C 29.4346 23.9932 30.2926 24.6172 30.3186 25.8912 L 33.8286 25.8912 z M 14.9526 31.5852 L 16.2006 35.4072 L 20.2046 35.4072 L 13.6526 16.4532 L 9.3366 16.4532 L 2.6026 35.4072 L 6.5806 35.4072 L 7.8546 31.5852 L 14.9526 31.5852 z M 13.8866 28.3352 L 8.9466 28.3352 L 11.4166 20.9252 L 13.8866 28.3352 z "
       transform="scale(2.39898,2.50114)"
       style="font-size:26;font-weight:bold;fill:#e64ca6;stroke-width:1pt;font-family:Helvetica;"
       id="path221" />
  </g>
</svg>
