<?xml version="1.0" encoding="UTF-8" standalone="no"?>
<!DOCTYPE svg PUBLIC "-//W3C//DTD SVG 20010904//EN"
"http://www.w3.org/TR/2001/REC-SVG-20010904/DTD/svg10.dtd"
[
 <!ATTLIST svg
  xmlns:xlink CDATA #FIXED "http://www.w3.org/1999/xlink">
]>
<!-- Created with Sodipodi ("http://www.sodipodi.com/") -->
<svg
   xmlns="http://www.w3.org/2000/svg"
   xmlns:xlink="http://www.w3.org/1999/xlink"
   version="1"
   x="0"
   y="0"
   width="125"
   height="125"
   id="svg101">
  <defs
     id="defs103" />
  <g
     style="font-size:12;"
     id="g447">
    <path
       d="M 6.2796 6.74281 L 6.2796 118.768 L 118.718 118.768 L 118.718 6.74281 L 6.2796 6.74281 z "
       style="fill:#999999;fill-rule:evenodd;stroke-width:0pt;"
       id="path446" />
    <path
       d="M 34.1728 17.4216 L 34.1728 31.4616 L 37.8128 31.4616 L 37.8128 23.9996 C 37.8128 21.8676 38.8788 20.8016 41.0108 20.8016 C 41.4008 20.8016 41.6608 20.8276 42.1548 20.9056 L 42.1548 17.2136 C 41.9468 17.1876 41.8168 17.1876 41.7128 17.1876 C 40.0488 17.1876 38.5928 18.2796 37.8128 20.1776 L 37.8128 17.4216 L 34.1728 17.4216 z M 28.3228 17.4216 L 25.4108 27.6396 L 22.3168 17.4216 L 18.3128 17.4216 L 23.5388 32.0336 L 23.5388 32.0596 L 23.5388 32.1376 C 23.5388 33.4636 22.5508 34.4776 21.2768 34.4776 C 20.9908 34.4776 20.7828 34.4516 20.3148 34.3216 L 20.3148 37.0516 C 20.8608 37.1296 21.1728 37.1556 21.6148 37.1556 C 22.5248 37.1556 23.6168 36.9736 24.2408 36.7136 C 25.2548 36.2976 25.6968 35.6996 26.2948 34.0356 L 32.0668 17.4216 L 28.3228 17.4216 z M 12.2028 15.7576 L 17.7408 15.7576 L 17.7408 12.5076 L 2.55684 12.5076 L 2.55684 15.7576 L 8.30284 15.7576 L 8.30284 31.4616 L 12.2028 31.4616 L 12.2028 15.7576 z "
       transform="scale(2.80557,2.80557)"
       style="font-size:26;font-weight:bold;fill:#74839b;stroke-width:1pt;font-family:Helvetica;"
       id="path445" />
  </g>
</svg>
