<?xml version="1.0" encoding="UTF-8" standalone="no"?>
<!-- Created with Sodipodi ("http://www.sodipodi.com/") -->

<svg
   xmlns:dc="http://purl.org/dc/elements/1.1/"
   xmlns:cc="http://creativecommons.org/ns#"
   xmlns:rdf="http://www.w3.org/1999/02/22-rdf-syntax-ns#"
   xmlns:svg="http://www.w3.org/2000/svg"
   xmlns="http://www.w3.org/2000/svg"
   xmlns:sodipodi="http://sodipodi.sourceforge.net/DTD/sodipodi-0.dtd"
   xmlns:inkscape="http://www.inkscape.org/namespaces/inkscape"
   version="1"
   x="0"
   y="0"
   width="125"
   height="125"
   id="svg101"
   sodipodi:version="0.32"
   inkscape:version="0.92.3 (2405546, 2018-03-11)"
   sodipodi:docname="diaminopimelic.svg"
   inkscape:output_extension="org.inkscape.output.svg.inkscape">
  <metadata
     id="metadata2320">
    <rdf:RDF>
      <cc:Work
         rdf:about="">
        <dc:format>image/svg+xml</dc:format>
        <dc:type
           rdf:resource="http://purl.org/dc/dcmitype/StillImage" />
        <dc:title></dc:title>
      </cc:Work>
    </rdf:RDF>
  </metadata>
  <sodipodi:namedview
     inkscape:window-height="571"
     inkscape:window-width="745"
     inkscape:pageshadow="2"
     inkscape:pageopacity="0.0"
     guidetolerance="10.0"
     gridtolerance="10.0"
     objecttolerance="10.0"
     borderopacity="1.0"
     bordercolor="#666666"
     pagecolor="#ffffff"
     id="base"
     inkscape:zoom="3.024"
     inkscape:cx="62.5"
     inkscape:cy="62.5"
     inkscape:window-x="1165"
     inkscape:window-y="169"
     inkscape:current-layer="svg101"
     showgrid="false" />
  <defs
     id="defs103" />
  <path
     id="path344"
     style="font-size:26px;font-weight:bold;fill:#d42b00;stroke-width:1pt;font-family:Helvetica"
     d="M 20.302872,118.43694 L 62.064468,118.43694 C 78.329444,118.43694 88.586637,114.46489 95.766671,105.4514 C 104.26549,95.062967 108.80796,79.938632 108.80796,62.675503 C 108.80796,45.565144 104.26549,30.440809 95.766671,19.899606 C 88.586637,10.886113 78.475976,7.0668367 62.064468,7.0668367 L 20.302872,7.0668367 L 20.302872,118.43694 z M 42.28257,99.340557 L 42.28257,26.163219 L 62.064468,26.163219 C 78.622507,26.163219 86.828261,38.232133 86.828261,62.828274 C 86.828261,87.271643 78.622507,99.340557 62.064468,99.340557 L 42.28257,99.340557 z " />
  <text
     xml:space="preserve"
     style="font-style:normal;font-weight:normal;font-size:72.34080505px;line-height:45.21300507px;font-family:'Bitstream Vera Sans';letter-spacing:0px;word-spacing:0px;fill:#000000;fill-opacity:1;stroke:none;stroke-width:1.80852032px;stroke-linecap:butt;stroke-linejoin:miter;stroke-opacity:1"
     x="19.186525"
     y="59.769466"
     id="text814"
     transform="scale(1.0187815,0.98156474)"><tspan
       sodipodi:role="line"
       x="19.186525"
       y="59.769466"
       style="stroke-width:1.80852032px"
       id="tspan816">A</tspan></text>
  <text
     xml:space="preserve"
     style="font-style:normal;font-weight:normal;font-size:72.34080505px;line-height:45.21300507px;font-family:'Bitstream Vera Sans';letter-spacing:0px;word-spacing:0px;fill:#000000;fill-opacity:1;stroke:none;stroke-width:1.80852032px;stroke-linecap:butt;stroke-linejoin:miter;stroke-opacity:1"
     x="62.90242"
     y="120.32574"
     id="text814-0"
     transform="scale(1.0187815,0.98156474)"><tspan
       sodipodi:role="line"
       x="62.90242"
       y="120.32574"
       style="stroke-width:1.80852032px"
       id="tspan816-1">P</tspan></text>
</svg>
