# This file contains isotopic data in a format that can accommodate
# comments in the form of lines beginning with the '#' character.

1,hydrogen,H,1,1.007825032269999976364260874106548726558685302734375000000000,1,0,0.999884290164307909520857720053754746913909912109375000000000,-0.000115716530591520062594239337538937206772970966994762420654,0
1,hydrogen,H,1,2.014101778190000135992931973305530846118927001953125000000000,2,1,0.000115709835692033314582735648023970043141162022948265075684,-9.064424917075021070900220365729182958602905273437500000000000,0
2,helium,He,2,3.016029322000000068015879151062108576297760009765625000000000,3,0,0.000001342999991941999914655050951672876635711872950196266174,-13.520604646423175054792409355286508798599243164062500000000000,0
2,helium,He,2,4.002603254140000288430201180744916200637817382812500000000000,4,1,0.999998657000008006612290500925155356526374816894531250000000,-0.000001343000893767296712052561162564767727189973811618983746,0
3,lithium,Li,3,6.015122887100000426130463893059641122817993164062500000000000,6,0,0.075933925285977116326208147256693337112665176391601562500000,-2.577891720978651601825504258158616721630096435546875000000000,0
3,lithium,Li,3,7.016003442999999784035480843158438801765441894531250000000000,7,1,0.924066074714022800407065005856566131114959716796875000000000,-0.078971700466369670889932308455172460526227951049804687500000,0
4,beryllium,Be,4,9.012183159999999304545781342312693595886230468750000000000000,9,0,1.000000000000000000000000000000000000000000000000000000000000,0.000000000000000000000000000000000000000000000000000000000000,0
5,boron,B,5,10.012937300000000817590262158773839473724365234375000000000000,10,0,0.199480830670926506664741850727295968681573867797851562500000,-1.612037134131381055368592569720931351184844970703125000000000,0
5,boron,B,5,11.009305299999999405713424494024366140365600585937500000000000,11,1,0.800519169329073410068531302385963499546051025390625000000000,-0.222494800137427506392384657374350354075431823730468750000000,0
6,carbon,C,6,12.000000000000000000000000000000000000000000000000000000000000,12,0,0.989211941850466902614869013632414862513542175292968750000000,-0.010846671177187783979833923808655526954680681228637695312500,0
6,carbon,C,6,13.003354835199999683936766814440488815307617187500000000000000,13,1,0.010788058149533083507343178553128382191061973571777343750000,-4.529315483514037232737337035359814763069152832031250000000000,0
7,nitrogen,N,7,14.003074004200000146624915942084044218063354492187500000000000,14,0,0.017946000000000000146327394645595632027834653854370117187500,-4.020388030106270882413355138851329684257507324218750000000000,0
7,nitrogen,N,7,15.000108899400000694868140271864831447601318359375000000000000,15,1,0.985550000000000037125857943465234711766242980957031250000000,-0.014555418009198527878877982288940984290093183517456054687500,0
8,oxygen,O,8,15.994914620199999433225457323715090751647949218750000000000000,16,0,0.997567609729561044495937949250219389796257019042968750000000,-0.002435353337518350851781390176142849668394774198532104492188,0
8,oxygen,O,8,16.999131757600000725005884305573999881744384765625000000000000,17,1,0.000380998476006095935803702490218825005285907536745071411133,-7.872715182829573166145564755424857139587402343750000000000000,0
8,oxygen,O,8,17.999159613700001614233769942075014114379882812500000000000000,18,2,0.002051391794432822109073288885383590240962803363800048828125,-6.189236792082963845018639403861016035079956054687500000000000,0
9,fluorine,F,9,18.998403163700000817470936453901231288909912109375000000000000,19,0,1.000000000000000000000000000000000000000000000000000000000000,0.000000000000000000000000000000000000000000000000000000000000,0
10,neon,Ne,10,19.992440181999999282425051205791532993316650390625000000000000,20,0,0.904766666333356561757739200402284041047096252441406250000000,-0.100078195781331494296217954342864686623215675354003906250000,0
10,neon,Ne,10,20.993846730000001343796611763536930084228515625000000000000000,21,1,0.002709810313278070148523823945652111433446407318115234375000,-5.910876641640641970809610938886180520057678222656250000000000,0
10,neon,Ne,10,21.991385120000000341633494826965034008026123046875000000000000,22,2,0.092523523353365264010328417043638182803988456726074218750000,-2.380292360271312634978357891668565571308135986328125000000000,0
11,sodium,Na,11,22.989769282000001027199687086977064609527587890625000000000000,23,0,1.000000000000000000000000000000000000000000000000000000000000,0.000000000000000000000000000000000000000000000000000000000000,0
12,magnesium,Mg,12,23.985041701000000102794729173183441162109375000000000000000000,24,0,0.789876809855211581279377242026384919881820678710937500000000,-0.235878282572628383828572395941591821610927581787109375000000,0
12,magnesium,Mg,12,24.985837029999999003848643042147159576416015625000000000000000,25,1,0.100001999840012789633192369365133345127105712890625000000000,-2.302565094793883382351395994191989302635192871093750000000000,0
12,magnesium,Mg,12,25.982593019999999484070940525270998477935791015625000000000000,26,2,0.110121190304775615209642580794024979695677757263183593750000,-2.206173789605455404227996041299775242805480957031250000000000,0
13,aluminium,Al,13,26.981538579999998717084963573142886161804199218750000000000000,27,0,1.000000000000000000000000000000000000000000000000000000000000,0.000000000000000000000000000000000000000000000000000000000000,0
14,silicon,Si,14,27.976926535299998732853055116720497608184814453125000000000000,28,0,0.922220833349999713490774411184247583150863647460937500000000,-0.080970568540825488268453113960276823490858078002929687500000,0
14,silicon,Si,14,28.976494665299998843011053395457565784454345703125000000000000,29,1,0.046858437698747611166449900110819726251065731048583984375000,-3.060624186220378017964094397029839456081390380859375000000000,0
14,silicon,Si,14,29.973770011999999240970282698981463909149169921875000000000000,30,2,0.030920728951252581667707985957349592354148626327514648437500,-3.476328480144544208485513081541284918785095214843750000000000,0
15,phosphorus,P,15,30.973761998600000566739254281856119632720947265625000000000000,31,0,1.000000000000000000000000000000000000000000000000000000000000,0.000000000000000000000000000000000000000000000000000000000000,0
16,sulfur,S,16,31.972071174100001655915548326447606086730957031250000000000000,32,0,0.949850011999040066967836537514813244342803955078125000000000,-0.051451188958515865767839869704403099603950977325439453125000,0
16,sulfur,S,16,32.971458910099997297038498800247907638549804687500000000000000,33,1,0.007519398448124149821059081233443066594190895557403564453125,-4.890269137820559386398144852137193083763122558593750000000000,0
16,sulfur,S,16,33.967867030000000738709786674007773399353027343750000000000000,34,2,0.042520598352131823427502155254842364229261875152587890625000,-3.157766653355948971437783256988041102886199951171875000000000,0
16,sulfur,S,16,35.967081200000002638716978253796696662902832031250000000000000,36,4,0.000109991200703943683199964587160479823069181293249130249023,-9.115110188972028737453001667745411396026611328125000000000000,0
17,chlorine,Cl,17,34.968852730000001827193045755848288536071777343750000000000000,35,0,0.757594848103037898923162174469325691461563110351562500000000,-0.277606537419771426389303314863354898989200592041015625000000,0
17,chlorine,Cl,17,36.965902640000003032128006452694535255432128906250000000000000,37,2,0.242405151896962045565686594272847287356853485107421875000000,-1.417144771312495832304989562544506043195724487304687500000000,0
18,argon,Ar,18,35.967545119999996927617758046835660934448242187500000000000000,36,0,0.003336205796380696270847510120916012965608388185501098632813,-5.702921106825801444983881083317101001739501953125000000000000,0
18,argon,Ar,18,37.962732199999997817485564155504107475280761718750000000000000,38,2,0.000629799206452999775149304007015871320618316531181335449219,-7.370109509296556282720302988309413194656372070312500000000000,0
18,argon,Ar,18,39.962383121999998536466591758653521537780761718750000000000000,40,4,0.996033994997166272078459314798237755894660949707031250000000,-0.003973890456746663815690290277871099533513188362121582031250,0
19,potassium,K,19,38.963706492999996555681718746200203895568847656250000000000000,39,0,0.932580526071084436878777523816097527742385864257812500000000,-0.069799776156532433724066777358530089259147644042968750000000,0
19,potassium,K,19,39.963998240000002226679498562589287757873535156250000000000000,40,1,0.000117099885242112454345267402722186034225160256028175354004,-9.052483267360123875278077321127057075500488281250000000000000,1
19,potassium,K,19,40.961825263000001484670065110549330711364746093750000000000000,41,2,0.067302374043673424131029037198459263890981674194335937500000,-2.698559767416127019856730839819647371768951416015625000000000,0
20,calcium,Ca,20,39.962590919999996685874066315591335296630859375000000000000000,40,0,0.969400838426726974006442105746828019618988037109375000000000,-0.031077090678799931117159971449837030377238988876342773437500,0
20,calcium,Ca,20,41.958618100000002471006155246868729591369628906250000000000000,42,2,0.006472228417153705684605746739634923869743943214416503906250,-5.040234806716209270405215647770091891288757324218750000000000,0
20,calcium,Ca,20,42.958766199999999457759258802980184555053710937500000000000000,43,3,0.001350985058105257227353823701321289263432845473289489746094,-6.606921279942914004834619845496490597724914550781250000000000,0
20,calcium,Ca,20,43.955482199999998726980265928432345390319824218750000000000000,44,4,0.020860869278785776348428271376178599894046783447265625000000,-3.869880158236262079896050636307336390018463134765625000000000,0
20,calcium,Ca,20,45.953691999999996653514244826510548591613769531250000000000000,46,6,0.000042999524425259849917842214228613784143817611038684844971,-10.054321502209552008366699737962335348129272460937500000000000,0
20,calcium,Ca,20,47.952522889999997346421878319233655929565429687500000000000000,48,8,0.001872079294802999303859447621789513505063951015472412109375,-6.280705543488890540970714937429875135421752929687500000000000,1
21,scandium,Sc,21,44.955908600000000774343789089471101760864257812500000000000000,45,0,1.000000000000000000000000000000000000000000000000000000000000,0.000000000000000000000000000000000000000000000000000000000000,0
22,titanium,Ti,22,45.952628300000000649561116006225347518920898437500000000000000,46,0,0.082520097588289403889305617667559999972581863403320312500000,-2.494713408178120150893164463923312723636627197265625000000000,0
22,titanium,Ti,22,46.951759299999999086594471009448170661926269531250000000000000,47,1,0.074411070671519405350657905273692449554800987243652343750000,-2.598150548864236686341655513388104736804962158203125000000000,0
22,titanium,Ti,22,47.947942300000001125681592384353280067443847656250000000000000,48,2,0.737141543014838140912559083517407998442649841308593750000000,-0.304975352295239643396485007542651146650314331054687500000000,0
22,titanium,Ti,22,48.947866300000001160697138402611017227172851562500000000000000,49,3,0.054113506379234489751528514034362160600721836090087890625000,-2.916671468480125817279713373864069581031799316406250000000000,0
22,titanium,Ti,22,49.944787300000001550870365463197231292724609375000000000000000,50,4,0.051813782346118462951434224805780104361474514007568359375000,-2.960099096648749483762230738648213446140289306640625000000000,0
23,vanadium,V,23,49.947156700000000739692040951922535896301269531250000000000000,50,0,0.002503979968160254584302881752932989911641925573348999023438,-5.989873825712285437816717603709548711776733398437500000000000,1
23,vanadium,V,23,50.943957699999998567363945767283439636230468750000000000000000,51,1,0.997496020031839680797247638111002743244171142578125000000000,-0.002507120169096173530054461053850900498218834400177001953125,0
24,chromium,Cr,24,49.946042699999999570081854471936821937561035156250000000000000,50,0,0.043450743830478963380947732275672024115920066833496093750000,-3.136127308188753737283605005359277129173278808593750000000000,0
24,chromium,Cr,24,51.940506399999996745009411824867129325866699218750000000000000,52,2,0.837881075122238416774678171350387856364250183105468750000000,-0.176879103699552453488053060937090776860713958740234375000000,0
24,chromium,Cr,24,52.940648400000000606269168201833963394165039062500000000000000,53,3,0.095010483865806516501351097758742980659008026123046875000000,-2.353768036988251211028000398073345422744750976562500000000000,0
24,chromium,Cr,24,53.938879399999997588111000368371605873107910156250000000000000,54,4,0.023657697181476075587447382986283628270030021667480468750000,-3.744066754776672834026385316974483430385589599609375000000000,0
25,manganese,Mn,25,54.938044300000001385342329740524291992187500000000000000000000,55,0,1.000000000000000000000000000000000000000000000000000000000000,0.000000000000000000000000000000000000000000000000000000000000,0
26,iron,Fe,26,53.939609300000000757790985517203807830810546875000000000000000,54,0,0.058452792721208068904559240763774141669273376464843750000000,-2.839535812544084603104010966490022838115692138671875000000000,0
26,iron,Fe,26,55.934936299999996833776094717904925346374511718750000000000000,56,2,0.917532497856775930422656983864726498723030090332031250000000,-0.086067279673300162157190129619266372174024581909179687500000,0
26,iron,Fe,26,56.935393300000001204352884087711572647094726562500000000000000,57,3,0.021190743592002535267138085828264593146741390228271484375000,-3.854190815670504033363386042765341699123382568359375000000000,0
26,iron,Fe,26,57.933274300000000778254616307094693183898925781250000000000000,58,4,0.002823965830013456732028309659199294401332736015319824218750,-5.869613059277937416879922238877043128013610839843750000000000,0
27,cobalt,Co,27,58.933194399999997870054357917979359626770019531250000000000000,59,0,1.000000000000000000000000000000000000000000000000000000000000,0.000000000000000000000000000000000000000000000000000000000000,0
28,nickel,Ni,28,57.935342300000002069282345473766326904296875000000000000000000,58,0,0.680769095231327558970235713786678388714790344238281250000000,-0.384532097536943340276849312431295402348041534423828125000000,0
28,nickel,Ni,28,59.930786300000001176613295683637261390686035156250000000000000,60,2,0.262230419610671172669924544607056304812431335449218750000000,-1.338531697560186861650777245813515037298202514648437500000000,0
28,nickel,Ni,28,60.931056300000001613170752534642815589904785156250000000000000,61,3,0.011399083035777891892426083586542517878115177154541015625000,-4.474222362274872466514352709054946899414062500000000000000000,0
28,nickel,Ni,28,61.928345399999997766826709266752004623413085937500000000000000,62,4,0.036346250253448952882706635136855766177177429199218750000000,-3.314664237037550087450199498562142252922058105468750000000000,0
28,nickel,Ni,28,63.927967399999999997817212715744972229003906250000000000000000,64,6,0.009255151868774300419340228529563319170847535133361816406250,-4.682574923715371539856278104707598686218261718750000000000000,0
29,copper,Cu,29,62.929598400000003266541170887649059295654296875000000000000000,63,0,0.691494255172344751692037334578344598412513732910156250000000,-0.368900435688631012087768112905905582010746002197265625000000,0
29,copper,Cu,29,64.927790599999994469726516399532556533813476562500000000000000,65,2,0.308505744827655137285660202906001359224319458007812500000000,-1.176014814002444008878001113771460950374603271484375000000000,0
30,zinc,Zn,30,63.929142599999998708426574012264609336853027343750000000000000,64,0,0.491645713885820234700929631799226626753807067871093750000000,-0.709996915609857004447746930964058265089988708496093750000000,0
30,zinc,Zn,30,65.926034700000002430897438898682594299316406250000000000000000,66,2,0.277325508740183801492662496457342058420181274414062500000000,-1.282563340904273152531800405995454639196395874023437500000000,0
30,zinc,Zn,30,66.927128699999997252234607003629207611083984375000000000000000,67,3,0.040405292597461665848879164286699960939586162567138671875000,-3.208794497707758708315850526560097932815551757812500000000000,0
30,zinc,Zn,30,67.924845700000005876972863916307687759399414062500000000000000,68,4,0.184515103497573135227227680843498092144727706909179687500000,-1.690023957076583371872402494773268699645996093750000000000000,0
30,zinc,Zn,30,69.925321999999994204699760302901268005371093750000000000000000,70,6,0.006108381278961075126765489784474993939511477947235107421875,-5.098093470692335316130083811003714799880981445312500000000000,0
31,gallium,Ga,31,68.925574900000000866384652908891439437866210937500000000000000,69,0,0.601079797840404217446064194518839940428733825683593750000000,-0.509027578151938331352255318051902577280998229980468750000000,0
31,gallium,Ga,31,70.924703699999994910285749938338994979858398437500000000000000,71,2,0.398920202159595671531633342965506017208099365234375000000000,-0.918993876681337473755206701753195375204086303710937500000000,0
32,germanium,Ge,32,69.924249700000004281719157006591558456420898437500000000000000,70,0,0.205705812301332946478993335404084064066410064697265625000000,-1.581308226517597503857359697576612234115600585937500000000000,0
32,germanium,Ge,32,71.922075860000006741756806150078773498535156250000000000000000,72,2,0.274503726116209989527305879164487123489379882812500000000000,-1.292790443930836863373201595095451921224594116210937500000000,0
32,germanium,Ge,32,72.923459039999997344239091034978628158569335937500000000000000,73,3,0.077504017086240106770844704442424699664115905761718750000000,-2.557425510595298323579527277615852653980255126953125000000000,0
32,germanium,Ge,32,73.921177760999995598467648960649967193603515625000000000000000,74,4,0.364982406812098314485837136089685373008251190185546875000000,-1.007906127076126923114429700945038348436355590820312500000000,0
32,germanium,Ge,32,75.921402720000003228051355108618736267089843750000000000000000,76,6,0.077304037684118531714716482383664697408676147460937500000000,-2.560009090805706488680471011321060359477996826171875000000000,1
33,arsenic,As,33,74.921595699999997464146872516721487045288085937500000000000000,75,0,1.000000000000000000000000000000000000000000000000000000000000,0.000000000000000000000000000000000000000000000000000000000000,0
34,selenium,Se,34,73.922475910000002841115929186344146728515625000000000000000000,74,0,0.008938426836876709608015190156038443092256784439086914062500,-4.717395674310531639150667615467682480812072753906250000000000,0
34,selenium,Se,34,75.919213720000001899279595818370580673217773437500000000000000,76,2,0.093712506598838590798905556766840163618326187133789062500000,-2.367523623737181281967423274181783199310302734375000000000000,0
34,selenium,Se,34,76.919914259999998762395989615470170974731445312500000000000000,77,3,0.076302570747548426055573145276866853237152099609375000000000,-2.573048648630889889687978211441077291965484619140625000000000,0
34,selenium,Se,34,77.917309200000005375841283239424228668212890625000000000000000,78,4,0.237686167234566703143627819372341036796569824218750000000000,-1.436804100526558380934716296906117349863052368164062500000000,0
34,selenium,Se,34,79.916522900000003915010893251746892929077148437500000000000000,80,6,0.496053694549759227605534306348999962210655212402343750000000,-0.701071102975730831019518518587574362754821777343750000000000,0
34,selenium,Se,34,81.916700099999999906685843598097562789916992187500000000000000,82,8,0.087306634032410290746639702774700708687305450439453125000000,-2.438328827816317101451204507611691951751708984375000000000000,1
35,bromine,Br,35,78.918338099999999712963472120463848114013671875000000000000000,79,0,0.506898896176611657438115798868238925933837890625000000000000,-0.679443711102156733261381305055692791938781738281250000000000,0
35,bromine,Br,35,80.916290099999997664781403727829456329345703125000000000000000,81,2,0.493101103823388231539581738616107031702995300292968750000000,-0.707041047215952844773312335746595636010169982910156250000000,0
36,krypton,Kr,36,77.920365599999996675251168198883533477783203125000000000000000,78,0,0.003552948126957346328819165037771199422422796487808227539063,-5.639977561836668762396129750413820147514343261718750000000000,1
36,krypton,Kr,36,79.916378600000001597436494193971157073974609375000000000000000,80,2,0.022860666234272977725971998097520554438233375549316406250000,-3.778337476933724126126890041632577776908874511718750000000000,0
36,krypton,Kr,36,81.913483700000000453655957244336605072021484375000000000000000,82,4,0.115931407401451927463575941601447993889451026916503906250000,-2.154756578276459499932116159470751881599426269531250000000000,0
36,krypton,Kr,36,82.914127199999995809776009991765022277832031250000000000000000,83,5,0.115000220996773441783922464765055337920784950256347656250000,-2.162821228909660220551813836209475994110107421875000000000000,0
36,krypton,Kr,36,83.911497733000004473069566302001476287841796875000000000000000,84,6,0.569863179997571966950431487930472940206527709960937500000000,-0.562358982058553724669991424889303743839263916015625000000000,0
36,krypton,Kr,36,85.910610633000004554560291580855846405029296875000000000000000,86,8,0.172791577242972227423933873069472610950469970703125000000000,-1.755669166607024767046141278115101158618927001953125000000000,0
37,rubidium,Rb,37,84.911789742999999930361809674650430679321289062500000000000000,85,0,0.721691132354705722207199869444593787193298339843750000000000,-0.326158026142060741836559145667706616222858428955078125000000,0
37,rubidium,Rb,37,86.909180535999993821860698517411947250366210937500000000000000,87,2,0.278308867645294166770497668039752170443534851074218750000000,-1.279023747338471794776637580071110278367996215820312500000000,1
38,strontium,Sr,38,83.913419899999993845085555221885442733764648437500000000000000,84,0,0.005609775608975640752429381308274969342164695262908935546875,-5.183244558647554178776317712618038058280944824218750000000000,0
38,strontium,Sr,38,85.909261900000004175126377958804368972778320312500000000000000,86,2,0.098606055757769678349333730693615507334470748901367187500000,-2.316622601837921013867571673472411930561065673828125000000000,0
38,strontium,Sr,38,86.908878900000004819048626814037561416625976562500000000000000,87,3,0.070007199712011511372189431767765199765563011169433593750000,-2.659157189193052328590738397906534373760223388671875000000000,0
38,strontium,Sr,38,87.905613900000005855872586835175752639770507812500000000000000,88,4,0.825776968921243081922511919401586055755615234375000000000000,-0.191430555333882340685036638205929193645715713500976562500000,0
39,yttrium,Y,39,88.905842000000006919435691088438034057617187500000000000000000,89,0,1.000000000000000000000000000000000000000000000000000000000000,0.000000000000000000000000000000000000000000000000000000000000,0
40,zirconium,Zr,40,89.904702000000000339241523761302232742309570312500000000000000,90,0,0.514422711621750239352479638910153880715370178222656250000000,-0.664709955358130821778672725486103445291519165039062500000000,0
40,zirconium,Zr,40,90.905642000000000280124368146061897277832031250000000000000000,91,1,0.112234410554393593262290096390643157064914703369140625000000,-2.187165643480033949686003325041383504867553710937500000000000,0
40,zirconium,Zr,40,91.905032000000005609763320535421371459960937500000000000000000,92,2,0.171550886397901253266340404479706194251775741577148437500000,-1.762875342696557545707491954090073704719543457031250000000000,0
40,zirconium,Zr,40,93.906311999999999784449755679816007614135742187500000000000000,94,4,0.173788376250214926521664438041625544428825378417968750000000,-1.749916948420700224531287858553696423768997192382812500000000,0
40,zirconium,Zr,40,95.908271999999996637598087545484304428100585937500000000000000,96,6,0.028003615175739928616627238966430013533681631088256835937500,-3.575421663722070153568211026140488684177398681640625000000000,1
41,niobium,Nb,41,92.906372000000004618414095602929592132568359375000000000000000,93,0,1.000000000000000000000000000000000000000000000000000000000000,0.000000000000000000000000000000000000000000000000000000000000,0
42,molybdenum,Mo,42,91.906808600000005071706254966557025909423828125000000000000000,92,0,0.145308494342837241086741073559096548706293106079101562500000,-1.928896249393138528915869756019674241542816162109375000000000,0
42,molybdenum,Mo,42,93.905085299999996095721144229173660278320312500000000000000000,94,2,0.091496458524138415957516201615362660959362983703613281250000,-2.391455012103930855005273770075291395187377929687500000000000,0
42,molybdenum,Mo,42,94.905839299999996683254721574485301971435546875000000000000000,95,3,0.158387558641321063435114524509117472916841506958007812500000,-1.842710346617601580021528206998482346534729003906250000000000,0
42,molybdenum,Mo,42,95.904676300000005539914127439260482788085937500000000000000000,96,4,0.166690329831184980147185115129104815423488616943359375000000,-1.791617500319007794118419951701071113348007202148437500000000,0
42,molybdenum,Mo,42,96.906018299999999499050318263471126556396484375000000000000000,97,5,0.095999792030779435014764544575882609933614730834960937500000,-2.343409253862695162951013116980902850627899169921875000000000,0
42,molybdenum,Mo,42,97.905405299999998192106431815773248672485351562500000000000000,98,6,0.243900902666405350327494261364336125552654266357421875000000,-1.410993272797839370724659602274186909198760986328125000000000,0
42,molybdenum,Mo,42,99.907472799999993640085449442267417907714843750000000000000000,100,8,0.098216463963333416886669624545902479439973831176757812500000,-2.320581420206905942649200369487516582012176513671875000000000,1
44,ruthenium,Ru,44,95.907590299999995409052644390612840652465820312500000000000000,96,0,0.055402974808013198682044020415560225956141948699951171875000,-2.893121989774980473697496563545428216457366943359375000000000,0
44,ruthenium,Ru,44,97.905296000000006984009814914315938949584960937500000000000000,98,2,0.018726273471579152340993346115283202379941940307617187500000,-3.977827742728266446903262476553209125995635986328125000000000,0
44,ruthenium,Ru,44,98.905934799999997153463482391089200973510742187500000000000000,99,3,0.127588609866636532030881312493875157088041305541992187500000,-2.058944176423800787034679160569794476032257080078125000000000,0
44,ruthenium,Ru,44,99.904214800000005425317795015871524810791015625000000000000000,100,4,0.126054915071900669465421174209041055291891098022460937500000,-2.071037633074694905843671222100965678691864013671875000000000,0
44,ruthenium,Ru,44,100.905577899999997271152096800506114959716796875000000000000000,101,5,0.170586053375378299268305681835045106709003448486328125000000,-1.768515397703714908672623096208553761243820190429687500000000,0
44,ruthenium,Ru,44,101.904344899999998119710653554648160934448242187500000000000000,102,6,0.315451225206183960558803391904802992939949035644531250000000,-1.153751204177984268639534093381371349096298217773437500000000,0
44,ruthenium,Ru,44,103.905432000000004677531251218169927597045898437500000000000000,104,8,0.186189948200308125203505937861336860805749893188476562500000,-1.680987899482990099997437027923297137022018432617187500000000,0
45,rhodium,Rh,45,102.905501999999998474777385126799345016479492187500000000000000,103,0,1.000000000000000000000000000000000000000000000000000000000000,0.000000000000000000000000000000000000000000000000000000000000,0
46,palladium,Pd,46,101.905602000000001794433046597987413406372070312500000000000000,102,0,0.010207550187954890497099569302008603699505329132080078125000,-4.584627618010170380102863418869674205780029296875000000000000,0
46,palladium,Pd,46,103.904031099999997422855813056230545043945312500000000000000000,104,2,0.111463248820283120088525663504697149619460105895996093750000,-2.194060349407264354226754221599549055099487304687500000000000,0
46,palladium,Pd,46,104.905080900000001520311343483626842498779296875000000000000000,105,3,0.223336399264176588275176982278935611248016357421875000000000,-1.499076127310911887846600620832759886980056762695312500000000,0
46,palladium,Pd,46,105.903480900000005249239620752632617950439453125000000000000000,106,4,0.273264416540030363744762098576757125556468963623046875000000,-1.297315393792867643796284937707241624593734741210937500000000,0
46,palladium,Pd,46,107.903892900000002441629476379603147506713867187500000000000000,108,6,0.264546508837878890929573572066146880388259887695312500000000,-1.329738206325086657955125701846554875373840332031250000000000,0
46,palladium,Pd,46,109.905172600000000215914042200893163681030273437500000000000000,110,8,0.117181876349676070137029171291942475363612174987792968750000,-2.144028052451655508292560625704936683177947998046875000000000,0
47,silver,Ag,47,106.905091999999996232872945256531238555908203125000000000000000,107,0,0.518389668985958174118877650471404194831848144531250000000000,-0.657028062796280343249577526876237243413925170898437500000000,0
47,silver,Ag,47,108.904755100000002698834578040987253189086914062500000000000000,109,2,0.481610331014041714858819887012941762804985046386718750000000,-0.730619933776488150733996462804498150944709777832031250000000,0
48,cadmium,Cd,48,105.906460899999999014653440099209547042846679687500000000000000,106,0,0.012567197514954164816458614950533956289291381835937500000000,-4.376665231519177190477876138174906373023986816406250000000000,0
48,cadmium,Cd,48,107.904183900000006701702659483999013900756835937500000000000000,108,2,0.008928009053980960965657409644791187020018696784973144531250,-4.718561859232925925766721775289624929428100585937500000000000,0
48,cadmium,Cd,48,109.903007400000007010021363385021686553955078125000000000000000,110,4,0.124890149496662231087817929164884844794869422912597656250000,-2.080320732081178736194715384044684469699859619140625000000000,0
48,cadmium,Cd,48,110.904183399999993753226590342819690704345703125000000000000000,111,5,0.127983459688489453753845737082883715629577636718750000000000,-2.055854244595972435405428768717683851718902587890625000000000,0
48,cadmium,Cd,48,111.902763399999997773193172179162502288818359375000000000000000,112,6,0.241267197414976458658131264201074372977018356323242187500000,-1.421850256682005708697147383645642548799514770507812500000000,0
48,cadmium,Cd,48,112.904408300000000053842086344957351684570312500000000000000000,113,7,0.122184752800125570604272695618419675156474113464355468750000,-2.102221012532442756537420791573822498321533203125000000000000,1
48,cadmium,Cd,48,113.903365300000004367575456853955984115600585937500000000000000,114,8,0.287277937020044504823346187549759633839130401611328125000000,-1.247305110167633124262920318869873881340026855468750000000000,0
48,cadmium,Cd,48,115.904763200000004985668056178838014602661132812500000000000000,116,10,0.074901297010766587636254598692175932228565216064453125000000,-2.591584072043251474326552852289751172065734863281250000000000,1
49,indium,In,49,112.904062699999997221311787143349647521972656250000000000000000,113,0,0.042954845418549769675564675708301365375518798828125000000000,-3.147605821582104113076638896018266677856445312500000000000000,0
49,indium,In,49,114.903878789000003735054633580148220062255859375000000000000000,115,2,0.957045154581450119302132861776044592261314392089843750000000,-0.043904705171597842305875047941299271769821643829345703125000,1
50,tin,Sn,50,111.904824399999995421239873394370079040527343750000000000000000,112,0,0.009707379007667929146641050408561568474397063255310058593750,-4.634868960235463575259018398355692625045776367187500000000000,0
50,tin,Sn,50,113.902783700000000521868059877306222915649414062500000000000000,114,2,0.006608215781738930282018795736576066701672971248626708984375,-5.019441588675102039474040793720632791519165039062500000000000,0
50,tin,Sn,50,114.903344709999998940475052222609519958496093750000000000000000,115,3,0.003409079548521898664348306340343697229400277137756347656250,-5.681312951243271847090454684803262352943420410156250000000000,0
50,tin,Sn,50,115.901743100000004460525815375149250030517578125000000000000000,116,4,0.145370749897527656857576516813423950225114822387695312500000,-1.928467904013302591792466955666895955801010131835937500000000,0
50,tin,Sn,50,116.902954300000004650428309105336666107177734375000000000000000,117,5,0.076859248003039171148742525474517606198787689208984375000000,-2.565779477876660052970692049711942672729492187500000000000000,0
50,tin,Sn,50,117.901607299999994893369148485362529754638671875000000000000000,118,6,0.242144620952342848330118840749491937458515167236328125000000,-1.418220124080461719273671405971981585025787353515625000000000,0
50,tin,Sn,50,118.903311599999994996323948726058006286621093750000000000000000,119,7,0.085916802463334898676272644024720648303627967834472656250000,-2.454375864191848055639866288402117788791656494140625000000000,0
50,tin,Sn,50,119.902202700000003687819116748869419097900390625000000000000000,120,8,0.325722055045137792728127124064485542476177215576171875000000,-1.121710853164690879779641363711562007665634155273437500000000,0
50,tin,Sn,50,121.903441999999998301973391789942979812622070312500000000000000,122,10,0.046317494276545329023875297025369945913553237915039062500000,-3.072235543110140021383358543971553444862365722656250000000000,0
50,tin,Sn,50,123.905277799999993249002727679908275604248046875000000000000000,124,12,0.057944355024143474885978122301821713335812091827392578125000,-2.848272125086215300626690805074758827686309814453125000000000,0
51,antimony,Sb,51,120.903812000000002058186510112136602401733398437500000000000000,121,0,0.572091349038115315472907695948379114270210266113281250000000,-0.558456599237618478426270485215354710817337036132812500000000,0
51,antimony,Sb,51,122.904212000000001125954440794885158538818359375000000000000000,123,2,0.427908650961884573504789841535966843366622924804687500000000,-0.848845538512307262735134827380534261465072631835937500000000,0
52,tellurium,Te,52,119.904061999999996146470948588103055953979492187500000000000000,120,0,0.000909764371027903685079651907585684966761618852615356445313,-7.002324924918669424300787795800715684890747070312500000000000,0
52,tellurium,Te,52,121.903041000000001758962753228843212127685546875000000000000000,122,2,0.025505394102927340937991829150632838718593120574951171875000,-3.668865315739671117967191094066947698593139648437500000000000,0
52,tellurium,Te,52,122.904270999999994273821357637643814086914062500000000000000000,123,3,0.008927687728878220055350745099076448241248726844787597656250,-4.718597850559019590832576795946806669235229492187500000000000,0
52,tellurium,Te,52,123.902821000000002982233127113431692123413085937500000000000000,124,4,0.047401722953754971134898710261040832847356796264648437500000,-3.049096701706386802754877862753346562385559082031250000000000,0
52,tellurium,Te,52,124.904431000000002427441359031945466995239257812500000000000000,125,5,0.070696689557404629455916733604681212455034255981445312500000,-2.649356530974964485380951373372226953506469726562500000000000,0
52,tellurium,Te,52,125.903311000000002195520210079848766326904296875000000000000000,126,6,0.188376210561464557668998054396070074290037155151367187500000,-1.669314195717893856141245123581029474735260009765625000000000,0
52,tellurium,Te,52,127.904461699999998813837009947746992111206054687500000000000000,128,8,0.317407791382032011817670991149498149752616882324218750000000,-1.147567923673684653351756423944607377052307128906250000000000,1
52,tellurium,Te,52,129.906222759000002042739652097225189208984375000000000000000000,130,10,0.340774739342510235573513455165084451436996459960937500000000,-1.076533608421685217493291020218748599290847778320312500000000,1
53,iodine,I,53,126.904472999999995863618096336722373962402343750000000000000000,127,0,1.000000000000000000000000000000000000000000000000000000000000,0.000000000000000000000000000000000000000000000000000000000000,0
54,xenon,Xe,54,123.905891999999994368408806622028350830078125000000000000000000,124,0,0.000952296533640617525774685336870106766582466661930084228516,-6.956634086757649271248737932182848453521728515625000000000000,0
54,xenon,Xe,54,125.904302999999998746716300956904888153076171875000000000000000,126,2,0.000890196759683794711613680217254795934422872960567474365234,-7.024068041375896243039278488140553236007690429687500000000000,0
54,xenon,Xe,54,127.903531799999996110273059457540512084960937500000000000000000,128,4,0.019102830465697103606848017420816177036613225936889648437500,-3.957918762987576943856993239023722708225250244140625000000000,0
54,xenon,Xe,54,128.904780864000002793545718304812908172607421875000000000000000,129,5,0.264005869018636762923790683998959138989448547363281250000000,-1.331783944951729026229259034153074026107788085937500000000000,0
54,xenon,Xe,54,129.903509409999998069906723685562610626220703125000000000000000,130,6,0.040709981815666186621971434078659513033926486968994140625000,-3.201281963147128539759478371706791222095489501953125000000000,0
54,xenon,Xe,54,130.905084200000004557296051643788814544677734375000000000000000,131,7,0.212323527142361190289676642350968904793262481689453125000000,-1.549644096147559713116947932576294988393783569335937500000000,0
54,xenon,Xe,54,131.904155094000003600740456022322177886962890625000000000000000,132,8,0.269085350529324029977829013660084456205368041992187500000000,-1.312726661492457758129148714942857623100280761718750000000000,0
54,xenon,Xe,54,133.905395700000013903263607062399387359619140625000000000000000,134,10,0.104356830141138279266499466757522895932197570800781250000000,-2.259939193445343441624117986066266894340515136718750000000000,0
54,xenon,Xe,54,135.907214487999993934863596223294734954833984375000000000000000,136,12,0.088573117593851946605099101361702196300029754638671875000000,-2.423926880572130126978436237550340592861175537109375000000000,1
55,caesium,Cs,55,132.905451967000004742658347822725772857666015625000000000000000,133,0,1.000000000000000000000000000000000000000000000000000000000000,0.000000000000000000000000000000000000000000000000000000000000,0
56,barium,Ba,56,129.906321999999988747731549665331840515136718750000000000000000,130,0,0.001060985146207953045902061539607075246749445796012878417969,-6.848557419252292000066972832428291440010070800781250000000000,1
56,barium,Ba,56,131.905061799999998584098648279905319213867187500000000000000000,132,2,0.001010985846198153050023993415607037604786455631256103515625,-6.896829338845804180380127945682033896446228027343750000000000,0
56,barium,Ba,56,133.904508200000009310315363109111785888671875000000000000000000,134,4,0.024171461599537605313692267827718751505017280578613281250000,-3.722582614455130833874818563344888389110565185546875000000000,0
56,barium,Ba,56,134.905688199999985954491421580314636230468750000000000000000000,135,5,0.065920277116120362670415033790050074458122253417968750000000,-2.719309189565115580933252203976735472679138183593750000000000,0
56,barium,Ba,56,135.904576200000008157076081261038780212402343750000000000000000,136,6,0.078541300421794094099858796198532218113541603088378906250000,-2.544130672523534641982223547529429197311401367187500000000000,0
56,barium,Ba,56,136.905827200000004495450411923229694366455078125000000000000000,137,7,0.112320827508414877726750091824214905500411987304687500000000,-2.186395971313551900294669394497759640216827392578125000000000,0
56,barium,Ba,56,137.905247199999990925789461471140384674072265625000000000000000,138,8,0.716974162361726841119491382414707913994789123535156250000000,-0.332715474789523235621402363904053345322608947753906250000000,0
57,lanthanum,La,57,137.907123000000012780219549313187599182128906250000000000000000,138,0,0.000888171872103250392010975744483403104823082685470581054688,-7.026345284034602123313106858404353260993957519531250000000000,1
57,lanthanum,La,57,138.906362000000001444277586415410041809082031250000000000000000,139,1,0.999111828127896672846475212281802669167518615722656250000000,-0.000888566530440708531556059934786162557429634034633636474609,0
58,cerium,Ce,58,135.907129300000008242932381108403205871582031250000000000000000,136,0,0.001851973331584025024912354417949700291501358151435852050781,-6.291503542654471203832144965417683124542236328125000000000000,0
58,cerium,Ce,58,137.905998000000010961230145767331123352050781250000000000000000,138,2,0.002511963827720880421123794690174690913408994674682617187500,-5.986690430272505913933400734094902873039245605468750000000000,0
58,cerium,Ce,58,139.905441999999993640813045203685760498046875000000000000000000,140,4,0.884492463308528265031327464384958148002624511718750000000000,-0.122741286268200244791160002932883799076080322265625000000000,0
58,cerium,Ce,58,141.909252000000009275026968680322170257568359375000000000000000,142,6,0.111143599532166723053983048430382041260600090026855468750000,-2.196932224286036738902794240857474505901336669921875000000000,0
59,praseodymium,Pr,59,140.907661999999987756382324732840061187744140625000000000000000,141,0,1.000000000000000000000000000000000000000000000000000000000000,0.000000000000000000000000000000000000000000000000000000000000,0
60,neodymium,Nd,60,141.907732000000009975337889045476913452148437500000000000000000,142,0,0.271519166958828106483991859931848011910915374755859375000000,-1.303722545566528001614869936020113527774810791015625000000000,0
60,neodymium,Nd,60,142.909821999999991248841979540884494781494140625000000000000000,143,1,0.121740433020292235233306143982190405949950218200683593750000,-2.105864098995690714133388610207475721836090087890625000000000,0
60,neodymium,Nd,60,143.910091999999991685399436391890048980712890625000000000000000,144,2,0.237977663997580829446931716120161581784486770629882812500000,-1.435578458464392248572494281688705086708068847656250000000000,1
60,neodymium,Nd,60,144.912581999999986237526172772049903869628906250000000000000000,145,3,0.082929723850915446070608538775559281930327415466308593750000,-2.489761730430327446583760320208966732025146484375000000000000,0
60,neodymium,Nd,60,145.913121999999987110641086474061012268066406250000000000000000,146,4,0.171890140355501652713599014532519504427909851074218750000000,-1.760899725099839052688821539049968123435974121093750000000000,0
60,neodymium,Nd,60,147.916901999999993222445482388138771057128906250000000000000000,148,6,0.057561075412857647115583148433870519511401653289794921875000,-2.854908713800850428299327177228406071662902832031250000000000,0
60,neodymium,Nd,60,149.920902000000012321834219619631767272949218750000000000000000,150,8,0.056381796404024006608146635244338540360331535339355468750000,-2.875608931369854293080834395368583500385284423828125000000000,1
62,samarium,Sm,62,143.912012000000004263711161911487579345703125000000000000000000,144,0,0.030772522277086666181444840617587033193558454513549804687500,-3.481133121051686263314195457496680319309234619140625000000000,0
62,samarium,Sm,62,146.914902000000012094460544176399707794189453125000000000000000,147,3,0.149881578776357327065227309503825381398200988769531250000000,-1.897909771509530774125096286297775804996490478515625000000000,1
62,samarium,Sm,62,147.914831999999989875504979863762855529785156250000000000000000,148,4,0.112382691006085513873991033051424892619252204895019531250000,-2.185845347988713882614320027641952037811279296875000000000000,1
62,samarium,Sm,62,148.917192000000000007275957614183425903320312500000000000000000,149,5,0.138246406123312015612469849656918086111545562744140625000000,-1.978717634408995396100294783536810427904129028320312500000000,0
62,samarium,Sm,62,149.917282000000000152795109897851943969726562500000000000000000,150,6,0.073792068527347848272412988990254234522581100463867187500000,-2.606504025680458358493751802598126232624053955078125000000000,0
62,samarium,Sm,62,151.919742000000013604221749119460582733154296875000000000000000,152,8,0.267451009404714612482933944193064235150814056396484375000000,-1.318818871830977013104302386636845767498016357421875000000000,0
62,samarium,Sm,62,153.922222000000004982211976312100887298583984375000000000000000,154,10,0.227473723885095902019770619517657905817031860351562500000000,-1.480720546667873893653677441761828958988189697265625000000000,0
63,europium,Eu,63,150.919861999999994850440998561680316925048828125000000000000000,151,0,0.478103065570820051632949798658955842256546020507812500000000,-0.737928951383980402667361886415164917707443237304687500000000,1
63,europium,Eu,63,152.921242000000006555637810379266738891601562500000000000000000,153,2,0.521896934429179837344747738825390115380287170410156250000000,-0.650285154216317162756411107693566009402275085449218750000000,0
64,gadolinium,Gd,64,151.919802000000004227331373840570449829101562500000000000000000,152,0,0.002009636255837693018938550082452820788603276014328002929688,-6.209801540532629005042508651968091726303100585937500000000000,0
64,gadolinium,Gd,64,153.920872000000002799424692057073116302490234375000000000000000,154,2,0.021826049485043207132317633067941642366349697113037109375000,-3.824651092041761124562526674708351492881774902343750000000000,0
64,gadolinium,Gd,64,154.922631999999993013261700980365276336669921875000000000000000,155,3,0.147985214676143617129611129712429828941822052001953125000000,-1.910642911045310476936265331460162997245788574218750000000000,0
64,gadolinium,Gd,64,155.922132000000004836692824028432369232177734375000000000000000,156,4,0.204672954195290635048820604424690827727317810058593750000000,-1.586341919151083468264573639316949993371963500976562500000000,0
64,gadolinium,Gd,64,156.923971999999992021912476047873497009277343750000000000000000,157,5,0.156491675006823760529783839956508018076419830322265625000000,-1.854752465261401805918239915627054870128631591796875000000000,0
64,gadolinium,Gd,64,157.924112000000008038114174269139766693115234375000000000000000,158,6,0.248435033258980114689862261911912355571985244750976562500000,-1.392573903203236485026650370855350047349929809570312500000000,0
64,gadolinium,Gd,64,159.927062000000006491973181255161762237548828125000000000000000,160,8,0.218579437121880937322515592313720844686031341552734375000000,-1.520605773895307155640921337180770933628082275390625000000000,0
65,terbium,Tb,65,158.925352000000003727109287865459918975830078125000000000000000,159,0,1.000000000000000000000000000000000000000000000000000000000000,0.000000000000000000000000000000000000000000000000000000000000,0
66,dysprosium,Dy,66,155.924282000000005155015969648957252502441406250000000000000000,156,0,0.000562985756460361477619691594753703611786477267742156982422,-7.482256229504544720043668348807841539382934570312500000000000,0
66,dysprosium,Dy,66,157.924421999999992749508237466216087341308593750000000000000000,158,2,0.000952975889709990254573812595850768047966994345188140869141,-6.955920953990032629121742502320557832717895507812500000000000,0
66,dysprosium,Dy,66,159.925202000000012958480510860681533813476562500000000000000000,160,4,0.023291210732368467645203580218549177516251802444458007812500,-3.759679211363279094371137034613639116287231445312500000000000,0
66,dysprosium,Dy,66,160.926941999999996824044501408934593200683593750000000000000000,161,5,0.188889421097646226233024435714469291269779205322265625000000,-1.666593508702244319508167791354935616254806518554687500000000,0
66,dysprosium,Dy,66,161.926812000000012403688742779195308685302734375000000000000000,162,6,0.254747154896981076177553404704667627811431884765625000000000,-1.367483775157640080166743246081750839948654174804687500000000,0
66,dysprosium,Dy,66,162.928741999999999734427547082304954528808593750000000000000000,163,7,0.248957901365095435330943018925609067082405090332031250000000,-1.390471467634422086945278351777233183383941650390625000000000,0
66,dysprosium,Dy,66,163.929181999999997287886799313127994537353515625000000000000000,164,8,0.282598350261738351374418698469526134431362152099609375000000,-1.263728646463758931162146836868487298488616943359375000000000,0
67,holmium,Ho,67,164.930331999999992831362760625779628753662109375000000000000000,165,0,1.000000000000000000000000000000000000000000000000000000000000,0.000000000000000000000000000000000000000000000000000000000000,0
68,erbium,Er,68,161.928791999999987183400662615895271301269531250000000000000000,162,0,0.001395973476503946332158423437874716910300776362419128417969,-6.574163274461459316455602674977853894233703613281250000000000,0
68,erbium,Er,68,163.929212000000006810296326875686645507812500000000000000000000,164,2,0.016012695758780580435054474719436257146298885345458984375000,-4.134373386461300370342542009893804788589477539062500000000000,0
68,erbium,Er,68,165.930302000000011730662663467228412628173828125000000000000000,166,4,0.335027234482544788995994622382568195462226867675781250000000,-1.093543453498669215662175702163949608802795410156250000000000,0
68,erbium,Er,68,166.932051999999998770363163203001022338867187500000000000000000,167,5,0.228686654953555862368475004586798604577779769897460937500000,-1.475402531411262208038692733680363744497299194335937500000000,0
68,erbium,Er,68,167.932381999999989830030244775116443634033203125000000000000000,168,6,0.269776674243189351631855288360384292900562286376953125000000,-1.310160794679168905219057705835439264774322509765625000000000,0
68,erbium,Er,68,169.935472000000004300090949982404708862304687500000000000000000,170,8,0.149100767085425356395234075534972362220287322998046875000000,-1.903132912453214142800561603507958352565765380859375000000000,0
69,thulium,Tm,69,168.934222000000005436959327198565006256103515625000000000000000,169,0,1.000000000000000000000000000000000000000000000000000000000000,0.000000000000000000000000000000000000000000000000000000000000,0
70,ytterbium,Yb,70,167.933891999999985955582815222442150115966796875000000000000000,168,0,0.001232929969577727796758992440118163358420133590698242187500,-6.698361853186871606169461301760748028755187988281250000000000,0
70,ytterbium,Yb,70,169.934772000000009484210750088095664978027343750000000000000000,170,2,0.029822206098693591902470956256365752778947353363037109375000,-3.512501991875810691823289744206704199314117431640625000000000,0
70,ytterbium,Yb,70,170.936331999999993058736436069011688232421875000000000000000000,171,3,0.140905996539396560773838018576498143374919891357421875000000,-1.959662302151332857746979243529494851827621459960937500000000,0
70,ytterbium,Yb,70,171.936392000000012103555491194128990173339843750000000000000000,172,4,0.216800685721051017429417129278590437024831771850585937500000,-1.528776846501670894085123109107371419668197631835937500000000,0
70,ytterbium,Yb,70,172.938221999999996114638634026050567626953125000000000000000000,173,5,0.161027253651992552363481081556528806686401367187500000000000,-1.826181650981897996999236966075841337442398071289062500000000,0
70,ytterbium,Yb,70,173.938872000000003481545718386769294738769531250000000000000000,174,6,0.320249909805123023076589561242144554853439331054687500000000,-1.138653619844293141127877788676414638757705688476562500000000,0
70,ytterbium,Yb,70,175.942581999999987374394549988210201263427734375000000000000000,176,8,0.129961018214165419104588750087714288383722305297851562500000,-2.040520733384556528733355662552639842033386230468750000000000,0
71,lutetium,Lu,71,174.940782000000012885720934718847274780273437500000000000000000,175,0,0.974008767577204226384424146090168505907058715820312500000000,-0.026334973760810023724054929061821894720196723937988281250000,0
71,lutetium,Lu,71,175.942691999999993868186720646917819976806640625000000000000000,176,1,0.025991232422795697287742910930319339968264102935791015625000,-3.649996012338110329409346377360634505748748779296875000000000,1
72,hafnium,Hf,72,173.940052000000008547431207261979579925537109375000000000000000,174,0,0.001609652315099938373749166586890169128309935331344604492188,-6.431737076661124596910212858347222208976745605468750000000000,1
72,hafnium,Hf,72,175.941412000000013904355000704526901245117187500000000000000000,176,2,0.052668623577307296934613134453684324398636817932128906250000,-2.943735378782415867959798561059869825839996337890625000000000,0
72,hafnium,Hf,72,176.943231999999994741301634348928928375244140625000000000000000,177,3,0.185969830516608397585898160286888014525175094604492187500000,-1.682170819948636486529380817955825477838516235351562500000000,0
72,hafnium,Hf,72,177.943712000000004991306923329830169677734375000000000000000000,178,4,0.272821070648739838482299546740250661969184875488281250000000,-1.298939117547105670524842935265041887760162353515625000000000,0
72,hafnium,Hf,72,178.945821999999992613084032200276851654052734375000000000000000,179,5,0.136190582834107815068946933934057597070932388305664062500000,-1.993700029844323484695678416755981743335723876953125000000000,0
72,hafnium,Hf,72,179.946562000000000125510268844664096832275390625000000000000000,180,6,0.350740240108136591690168870627530850470066070556640625000000,-1.047709386165366352017258577689062803983688354492187500000000,0
73,tantalum,Ta,73,179.947462000000001580701791681349277496337890625000000000000000,180,0,0.000120131992311552486551486096377772128107608295977115631104,-9.026919483738925720217594061978161334991455078125000000000000,1
73,tantalum,Ta,73,180.948002000000002453816705383360385894775390625000000000000000,181,1,0.999879868007688354936135510797612369060516357421875000000000,-0.000120139208737295727770326425609681564310449175536632537842,0
74,tungsten,W,74,179.946711999999990894139045849442481994628906250000000000000000,180,0,0.001209872963338849303702171589236513682408258318901062011719,-6.717239913861373423742406885139644145965576171875000000000000,1
74,tungsten,W,74,181.948204699999990907599567435681819915771484375000000000000000,182,2,0.264988176241494621798722164385253563523292541503906250000000,-1.328070071947949681856471215724013745784759521484375000000000,0
74,tungsten,W,74,182.950223700000009330324246548116207122802734375000000000000000,183,3,0.143124971877952811283307710255030542612075805664062500000000,-1.944037101159571623298916165367700159549713134765625000000000,0
74,tungsten,W,74,183.950931700000012369855539873242378234863281250000000000000000,184,4,0.306387829277925793913794905165559612214565277099609375000000,-1.182903563582415440436079734354279935359954833984375000000000,0
74,tungsten,W,74,185.954362000000003263266989961266517639160156250000000000000000,186,6,0.284289149639287863635672692907974123954772949218750000000000,-1.257763426233626136152565777592826634645462036132812500000000,0
75,rhenium,Re,75,184.952955900000006295158527791500091552734375000000000000000000,185,0,0.374005039798408045470523575204424560070037841796875000000000,-0.983486006261584555510069094452774152159690856933593750000000,0
75,rhenium,Re,75,186.955750999999992245648172684013843536376953125000000000000000,187,2,0.625994960201591843507173962279921397566795349121093750000000,-0.468412958710625382252601411892101168632507324218750000000000,1
76,osmium,Os,76,183.952489100000008193092071451246738433837890625000000000000000,184,0,0.000209947723016968765524098428087995671376120299100875854492,-8.468651996251450597696930344682186841964721679687500000000000,1
76,osmium,Os,76,185.953841000000011263182386755943298339843750000000000000000000,186,2,0.015926034417430057904541129687459033448249101638793945312500,-4.139800124064825226355424092616885900497436523437500000000000,1
76,osmium,Os,76,186.955750999999992245648172684013843536376953125000000000000000,187,3,0.019615115836156795520173190539026109036058187484741210937500,-3.931454793849565199082007893593981862068176269531250000000000,0
76,osmium,Os,76,187.955840999999992391167324967682361602783203125000000000000000,188,4,0.132457018202467580181291850749403238296508789062500000000000,-2.021497077106750417385683249449357390403747558593750000000000,0
76,osmium,Os,76,188.958142000000009375071385875344276428222656250000000000000000,189,5,0.161519781574387955025429164379602298140525817871093750000000,-1.823127657291570224984411652258131653070449829101562500000000,0
76,osmium,Os,76,189.958441999999990912328939884901046752929687500000000000000000,190,6,0.262554623898649197588639481182326562702655792236328125000000,-1.337296127555923419549799291417002677917480468750000000000000,0
76,osmium,Os,76,191.961481999999989511707099154591560363769531250000000000000000,192,8,0.407717478347891348899878494194126687943935394287109375000000,-0.897180799465370992784585268964292481541633605957031250000000,0
77,iridium,Ir,77,190.960591999999991230652085505425930023193359375000000000000000,191,0,0.373050779688124722888176165724871680140495300292968750000000,-0.986040730030275258677363581227837130427360534667968750000000,0
77,iridium,Ir,77,192.962921999999991840013535693287849426269531250000000000000000,193,2,0.626949220311875166089521371759474277496337890625000000000000,-0.466889729967265909582607719130464829504489898681640625000000,0
78,platinum,Pt,78,189.959934000000004061803338117897510528564453125000000000000000,190,0,0.000121987349911814132899338936066868654961581341922283172607,-9.011593207854545539703394751995801925659179687500000000000000,1
78,platinum,Pt,78,191.961041999999991958247846923768520355224609375000000000000000,192,2,0.007821588901230941415221309398475568741559982299804687500000,-4.850867560763419739089385984698310494422912597656250000000000,0
78,platinum,Pt,78,193.962681699999990314609021879732608795166015625000000000000000,194,4,0.328605923565726210089366077227168716490268707275390625000000,-1.112896046865470500719652591214980930089950561523437500000000,0
78,platinum,Pt,78,194.964792700000003833338269032537937164306640625000000000000000,195,5,0.337788971283677852408544595164130441844463348388671875000000,-1.085333923798379451852724741911515593528747558593750000000000,0
78,platinum,Pt,78,195.964952699999997776103555224835872650146484375000000000000000,196,6,0.252107856415289710572125159160350449383258819580078125000000,-1.377898281389317913792069703049492090940475463867187500000000,0
78,platinum,Pt,78,197.967892000000006191839929670095443725585937500000000000000000,198,8,0.073553672484163390432598816914833150804042816162109375000000,-2.609739901377524873282709449995309114456176757812500000000000,0
79,gold,Au,79,196.966569600000013906537787988781929016113281250000000000000000,197,0,1.000000000000000000000000000000000000000000000000000000000000,0.000000000000000000000000000000000000000000000000000000000000,0
80,mercury,Hg,80,195.965832000000006019035936333239078521728515625000000000000000,196,0,0.001509815802472098391837085351596670079743489623069763183594,-6.495767620713909451524159521795809268951416015625000000000000,0
80,mercury,Hg,80,197.966769300000009934592526406049728393554687500000000000000000,198,2,0.099707835644051417967048678292485419660806655883789062500000,-2.305511012885385291326656442834064364433288574218750000000000,0
80,mercury,Hg,80,198.968281300000001010630512610077857971191406250000000000000000,199,3,0.168701418426951910145561441822792403399944305419921875000000,-1.779624881481258524829058842442464083433151245117187500000000,0
80,mercury,Hg,80,199.968327299999998558632796630263328552246093750000000000000000,200,4,0.230990819120067331082779560347262304276227951049804687500000,-1.465377313319132568381064629647880792617797851562500000000000,0
80,mercury,Hg,80,200.970303599999994048630469478666782379150390625000000000000000,201,5,0.131793921141620695713925215386552736163139343261718750000000,-2.026515779816368212351562760886736214160919189453125000000000,0
80,mercury,Hg,80,201.970643599999988282434060238301753997802734375000000000000000,202,6,0.298589572072207154462830658303573727607727050781250000000000,-1.208685317218918919834891312348190695047378540039062500000000,0
80,mercury,Hg,80,203.973494299999998702332959510385990142822265625000000000000000,204,8,0.068706617792629293139938795320631470531225204467773437500000,-2.677909755533927516069070406956598162651062011718750000000000,0
81,thallium,Tl,81,202.972345100000012507734936662018299102783203125000000000000000,203,0,0.295204095918081610427918803907232359051704406738281250000000,-1.220088311290825400234894004825036972761154174804687500000000,0
81,thallium,Tl,81,204.974428100000011454540072008967399597167968750000000000000000,205,2,0.704795904081918278549778733577113598585128784179687500000000,-0.349847015838577246604756965098204091191291809082031250000000,0
82,lead,Pb,82,203.973044899999990775540936738252639770507812500000000000000000,204,0,0.014094362255097959285565778486670751590281724929809570312500,-4.261980401619341662922124669421464204788208007812500000000000,0
82,lead,Pb,82,205.974466900000010127769201062619686126708984375000000000000000,206,2,0.241003598560575765796798464180028531700372695922851562500000,-1.422943413816338820154783206817228347063064575195312500000000,0
82,lead,Pb,82,206.975897900000006757181836292147636413574218750000000000000000,207,3,0.221011595361855245345239495691203046590089797973632812500000,-1.509540111140063478600836788245942443609237670898437500000000,0
82,lead,Pb,82,207.976653900000002295200829394161701202392578125000000000000000,208,4,0.523890443822470963652904174523428082466125488281250000000000,-0.646472693195343506289418655796907842159271240234375000000000,0
83,bismuth,Bi,83,208.980401000000000522049958817660808563232421875000000000000000,209,0,1.000000000000000000000000000000000000000000000000000000000000,0.000000000000000000000000000000000000000000000000000000000000,1
92,uranium,U,92,234.040952000000004318280844017863273620605468750000000000000000,234,1,0.000054599923560107009460132254652364736102754250168800354004,-9.815478075212435982166425674222409725189208984375000000000000,1
92,uranium,U,92,235.043932000000012294549378566443920135498046875000000000000000,235,2,0.007204689913434121108226637630878030904568731784820556640625,-4.933023088148108747930109529988840222358703613281250000000000,1
92,uranium,U,92,238.050792000000001280568540096282958984375000000000000000000000,238,5,0.992740710163005690702675565262325108051300048828125000000000,-0.007285766694735069763655399555091207730583846569061279296875,1
90,thorium,Th,90,232.038061999999996487531461752951145172119140625000000000000000,232,0,1.000000000000000000000000000000000000000000000000000000000000,0.000000000000000000000000000000000000000000000000000000000000,1
91,protactinium,Pa,91,231.035881999999986646798788569867610931396484375000000000000000,231,0,1.000000000000000000000000000000000000000000000000000000000000,0.000000000000000000000000000000000000000000000000000000000000,1
