<?xml version="1.0" encoding="UTF-8" standalone="no"?>
<!-- Created with Sodipodi ("http://www.sodipodi.com/") -->
<svg
   xmlns:dc="http://purl.org/dc/elements/1.1/"
   xmlns:cc="http://web.resource.org/cc/"
   xmlns:rdf="http://www.w3.org/1999/02/22-rdf-syntax-ns#"
   xmlns:svg="http://www.w3.org/2000/svg"
   xmlns="http://www.w3.org/2000/svg"
   xmlns:sodipodi="http://sodipodi.sourceforge.net/DTD/sodipodi-0.dtd"
   xmlns:inkscape="http://www.inkscape.org/namespaces/inkscape"
   version="1"
   x="0"
   y="0"
   width="125"
   height="125"
   id="svg101"
   sodipodi:version="0.32"
   inkscape:version="0.45.1"
   sodipodi:docname="histidine.svg"
   sodipodi:docbase="/home/rusconi/devel/massxpert/data/pol-chem-defs/protein-1-letter"
   inkscape:output_extension="org.inkscape.output.svg.inkscape">
  <metadata
     id="metadata2525">
    <rdf:RDF>
      <cc:Work
         rdf:about="">
        <dc:format>image/svg+xml</dc:format>
        <dc:type
           rdf:resource="http://purl.org/dc/dcmitype/StillImage" />
      </cc:Work>
    </rdf:RDF>
  </metadata>
  <sodipodi:namedview
     inkscape:window-height="571"
     inkscape:window-width="745"
     inkscape:pageshadow="2"
     inkscape:pageopacity="0.0"
     guidetolerance="10.0"
     gridtolerance="10.0"
     objecttolerance="10.0"
     borderopacity="1.0"
     bordercolor="#666666"
     pagecolor="#ffffff"
     id="base"
     inkscape:zoom="3.024"
     inkscape:cx="62.5"
     inkscape:cy="62.5"
     inkscape:window-x="755"
     inkscape:window-y="0"
     inkscape:current-layer="svg101" />
  <defs
     id="defs103" />
  <path
     id="path396"
     style="font-size:26px;font-weight:bold;fill:#74839b;stroke-width:1pt;font-family:Helvetica"
     d="M 84.622776,67.854667 L 84.622776,118.66139 L 107.64697,118.66139 L 107.64697,6.7638003 L 84.469281,6.7638003 L 84.469281,48.667837 L 40.262707,48.667837 L 40.262707,6.7638003 L 17.238511,6.7638003 L 17.238511,118.66139 L 40.262707,118.66139 L 40.262707,67.854667 L 84.622776,67.854667 z " />
</svg>
