<?xml version="1.0" encoding="UTF-8" standalone="no"?>
<!-- Created with Sodipodi ("http://www.sodipodi.com/") -->
<svg
   xmlns:dc="http://purl.org/dc/elements/1.1/"
   xmlns:cc="http://web.resource.org/cc/"
   xmlns:rdf="http://www.w3.org/1999/02/22-rdf-syntax-ns#"
   xmlns:svg="http://www.w3.org/2000/svg"
   xmlns="http://www.w3.org/2000/svg"
   xmlns:sodipodi="http://sodipodi.sourceforge.net/DTD/sodipodi-0.dtd"
   xmlns:inkscape="http://www.inkscape.org/namespaces/inkscape"
   version="1"
   x="0"
   y="0"
   width="125"
   height="125"
   id="svg101"
   sodipodi:version="0.32"
   inkscape:version="0.45.1"
   sodipodi:docname="serine.svg"
   sodipodi:docbase="/home/rusconi/devel/massxpert/data/pol-chem-defs/protein-1-letter"
   inkscape:output_extension="org.inkscape.output.svg.inkscape">
  <metadata
     id="metadata2822">
    <rdf:RDF>
      <cc:Work
         rdf:about="">
        <dc:format>image/svg+xml</dc:format>
        <dc:type
           rdf:resource="http://purl.org/dc/dcmitype/StillImage" />
      </cc:Work>
    </rdf:RDF>
  </metadata>
  <sodipodi:namedview
     inkscape:window-height="571"
     inkscape:window-width="745"
     inkscape:pageshadow="2"
     inkscape:pageopacity="0.0"
     guidetolerance="10.0"
     gridtolerance="10.0"
     objecttolerance="10.0"
     borderopacity="1.0"
     bordercolor="#666666"
     pagecolor="#ffffff"
     id="base"
     inkscape:zoom="3.024"
     inkscape:cx="62.5"
     inkscape:cy="62.5"
     inkscape:window-x="755"
     inkscape:window-y="0"
     inkscape:current-layer="svg101" />
  <defs
     id="defs103" />
  <path
     id="path439"
     style="font-size:26px;font-weight:bold;fill:#e64ca6;stroke-width:1pt;font-family:Helvetica"
     d="M 99.861773,40.981876 C 99.861773,31.190965 97.759306,24.761113 92.713386,18.915793 C 85.845329,11.024611 74.492009,6.7867537 59.774743,6.7867537 C 35.246074,6.7867537 21.089465,18.76966 21.089465,39.520546 C 21.089465,56.033575 29.078838,64.07089 49.823175,68.162614 L 64.11984,71.085274 C 78.136284,73.861801 83.322369,77.953525 83.322369,86.575372 C 83.322369,95.489485 75.47316,100.89641 62.718196,100.89641 C 48.421531,100.89641 40.432158,94.612687 39.731336,83.214313 L 19.267327,83.214313 C 20.528807,106.01106 35.526402,118.43237 61.59688,118.43237 C 87.947795,118.43237 103.50605,105.57266 103.50605,83.944978 C 103.50605,67.139683 95.37651,58.371703 76.454311,54.572245 L 60.475565,51.357319 C 45.478078,48.288526 41.13298,45.219733 41.13298,37.474684 C 41.13298,29.437369 48.001038,24.322714 58.793592,24.322714 C 72.109213,24.322714 79.537929,30.168034 80.238751,40.981876 L 99.861773,40.981876 z " />
</svg>
