<?xml version="1.0" encoding="UTF-8" standalone="no"?>
<!-- Created with Sodipodi ("http://www.sodipodi.com/") -->
<svg
   xmlns:dc="http://purl.org/dc/elements/1.1/"
   xmlns:cc="http://creativecommons.org/ns#"
   xmlns:rdf="http://www.w3.org/1999/02/22-rdf-syntax-ns#"
   xmlns:svg="http://www.w3.org/2000/svg"
   xmlns="http://www.w3.org/2000/svg"
   xmlns:sodipodi="http://sodipodi.sourceforge.net/DTD/sodipodi-0.dtd"
   xmlns:inkscape="http://www.inkscape.org/namespaces/inkscape"
   version="1"
   x="0"
   y="0"
   width="125"
   height="125"
   id="svg101"
   sodipodi:version="0.32"
   inkscape:version="0.46"
   sodipodi:docname="ps-rguanine.svg"
   inkscape:output_extension="org.inkscape.output.svg.inkscape">
  <metadata
     id="metadata2485">
    <rdf:RDF>
      <cc:Work
         rdf:about="">
        <dc:format>image/svg+xml</dc:format>
        <dc:type
           rdf:resource="http://purl.org/dc/dcmitype/StillImage" />
      </cc:Work>
    </rdf:RDF>
  </metadata>
  <sodipodi:namedview
     inkscape:window-height="672"
     inkscape:window-width="640"
     inkscape:pageshadow="2"
     inkscape:pageopacity="0.0"
     guidetolerance="10.0"
     gridtolerance="10.0"
     objecttolerance="10.0"
     borderopacity="1.0"
     bordercolor="#666666"
     pagecolor="#ffffff"
     id="base"
     showgrid="false"
     inkscape:zoom="3.712"
     inkscape:cx="62.5"
     inkscape:cy="62.5"
     inkscape:window-x="304"
     inkscape:window-y="149"
     inkscape:current-layer="svg101" />
  <defs
     id="defs103">
    <inkscape:perspective
       sodipodi:type="inkscape:persp3d"
       inkscape:vp_x="0 : 62.5 : 1"
       inkscape:vp_y="0 : 1000 : 0"
       inkscape:vp_z="125 : 62.5 : 1"
       inkscape:persp3d-origin="62.5 : 41.666667 : 1"
       id="perspective2487" />
  </defs>
  <g
     style="font-size:12;"
     id="g148">
    <path
       d="M 6.2796 6.74281 L 6.2796 118.768 L 118.718 118.768 L 118.718 6.74281 L 6.2796 6.74281 z "
       style="fill:#999999;fill-rule:evenodd;stroke-width:0pt;"
       id="path147" />
    <path
       d="M 19.6468 10.3372 L 12.0548 10.3372 L 12.0548 13.5872 L 16.3708 13.5872 C 16.2668 14.6532 16.0068 15.3032 15.4348 15.9792 C 14.4988 17.1232 13.0688 17.7992 11.5608 17.7992 C 8.41478 17.7992 6.15278 15.0432 6.15278 11.1432 C 6.15278 7.0612 8.15478 4.5912 11.4568 4.5912 C 12.8088 4.5912 13.9528 4.9812 14.8108 5.7352 C 15.3568 6.2032 15.6428 6.6452 15.9808 7.6332 L 19.6468 7.6332 C 19.1788 3.7332 16.0068 1.2632 11.4308 1.2632 C 5.97078 1.2632 2.25278 5.2932 2.25278 11.1952 C 2.25278 16.9412 5.99678 21.1272 11.1188 21.1272 C 13.6668 21.1272 15.3828 20.2172 16.8388 18.0852 L 17.3068 20.5812 L 19.6468 20.5812 L 19.6468 10.3372 z "
       transform="scale(5.62848,5.61443)"
       style="font-size:26;font-weight:bold;fill:#e2bd00;stroke-width:1pt;font-family:Helvetica;"
       id="path146" />
  </g>
  <text
     xml:space="preserve"
     style="font-size:51.34014893px;font-style:normal;font-variant:normal;font-weight:normal;font-stretch:normal;text-align:start;line-height:125%;writing-mode:lr-tb;text-anchor:start;fill:#800080;fill-opacity:1;stroke:none;stroke-width:1px;stroke-linecap:butt;stroke-linejoin:miter;stroke-opacity:1;font-family:Nimbus Roman No9 L;-inkscape-font-specification:Nimbus Roman No9 L"
     x="22.345976"
     y="97.857826"
     id="text2383"
     sodipodi:linespacing="125%"><tspan
       sodipodi:role="line"
       id="tspan2385"
       x="22.345976"
       y="97.857826">P=S</tspan></text>
  <text
     xml:space="preserve"
     style="font-size:81.02272797px;font-style:normal;font-variant:normal;font-weight:normal;font-stretch:normal;text-align:start;line-height:125%;writing-mode:lr-tb;text-anchor:start;fill:#000000;fill-opacity:1;stroke:none;stroke-width:1px;stroke-linecap:butt;stroke-linejoin:miter;stroke-opacity:1;font-family:Nimbus Roman No9 L;-inkscape-font-specification:Nimbus Roman No9 L"
     x="8.7772217"
     y="49.579834"
     id="text2534"
     sodipodi:linespacing="125%"><tspan
       sodipodi:role="line"
       id="tspan2536"
       x="8.7772217"
       y="49.579834">r</tspan></text>
</svg>
